<?xml version="1.0" encoding="UTF-8"?>
<!DOCTYPE svg PUBLIC "-//W3C//DTD SVG 1.1//EN" "http://www.w3.org/Graphics/SVG/1.1/DTD/svg11.dtd">
<!-- Creator: CorelDRAW X7 -->
<svg xmlns="http://www.w3.org/2000/svg" xml:space="preserve" width="15mm" height="15mm" version="1.1" style="shape-rendering:geometricPrecision; text-rendering:geometricPrecision; image-rendering:optimizeQuality; fill-rule:evenodd; clip-rule:evenodd"
viewBox="0 0 1500 1500"
 xmlns:xlink="http://www.w3.org/1999/xlink">
 <defs>
  <style type="text/css">
   <![CDATA[
    .str0 {stroke:#030303;stroke-width:20}
    .str1 {stroke:#030303;stroke-width:10}
    .fil0 {fill:none}
    .fil1 {fill:#030303;fill-rule:nonzero}
   ]]>
  </style>
 </defs>
 <g id="Слой_x0020_1">
  <metadata id="CorelCorpID_0Corel-Layer"/>
  <circle class="fil0 str0" cx="740" cy="721" r="550"/>
  <g id="_751137696">
   <g>
    <rect class="fil0 str1" x="389" y="646" width="700" height="150"/>
    <line class="fil0 str0" x1="390" y1="903" x2="390" y2= "539" />
    <line class="fil0 str0" x1="1090" y1="903" x2="1090" y2= "539" />
   </g>
   <g>
    <path class="fil1" d="M725 291l29 0 91 141 -29 19 -91 -140 29 0 -29 -20zm0 0l15 -23 14 23 -29 0zm-77 150l-14 -9 91 -141 29 20 -91 140 -15 -10zm82 167l0 -279 20 0 0 279 -20 0z"/>
   </g>
  </g>
 </g>
</svg>
